12

O          1.39868       -1.34774       -0.12067
H          1.65578       -2.01444        0.52783
H          0.43717       -1.49494       -0.27167
O          1.31918        1.31006        0.57663
H          1.47618        0.36556        0.34493
H          1.99548        1.80066        0.09423
O         -1.39872        1.34796        0.12003
H         -0.43722        1.49516        0.27143
H         -1.65532        2.01416       -0.52907
O         -1.31942       -1.31014       -0.57607
H         -1.47632       -0.36564       -0.34467
H         -1.99542       -1.80064       -0.09297