6
From the s22 database
O      -1.55100700      -0.11452000       0.00000000
H      -1.93425900       0.76250300       0.00000000
H      -0.59967700       0.04071200       0.00000000
O       1.35062500       0.11146900       0.00000000
H       1.68039800      -0.37374100      -0.75856100
H       1.68039800      -0.37374100       0.75856100
